{
    "title": "StudyPrograms",
    "model": "StudyPrograms",
    "searchExpression":"indexof(name, '${text}') ge 0 or indexof(studyLevel/name, '${text}') ge 0",
    "columns": [
      {
        "name": "id",
        "formatter": "ButtonFormatter",
        "property": "id",
        "className": "text-center",
        "formatOptions": {
          "buttonContent": "<i class=\"fas fa-eye text-indigo\"></i>",
          "buttonClass": "btn btn-default",
          "commands": [ "../../", "${encodeURIComponent(id)}"],
          "navigationExtras": {
            "replaceUrl": false,
            "skipLocationChange": true
          }
        }
      },
      {
        "name": "id",
        "formatter": "ButtonFormatter",
        "property": "id",
        "virtual": true,
        "className": "text-center",
        "formatOptions": {
          "buttonContent": "<i class=\"fas fa-edit text-indigo\"></i>",
          "buttonClass": "btn btn-default",
          "commands": [ "../../", "${encodeURIComponent(id)}", "edit"],
          "navigationExtras": {
            "replaceUrl": false,
            "skipLocationChange": true
          }
        }
      },
      {
        "name":"isActive",
        "property": "isActive",
        "title":"StudyPrograms.Active.Singular",
        "formatter": "TrueFalseFormatter"
      },
      {
        "name":"name",
        "property": "name",
        "title":"StudyPrograms.Name"
      },
      {
        "name":"abbreviation",
        "property": "abbreviation",
        "title":"StudyPrograms.Abbreviation"
      },
      {
        "name":"currentYear/alternateName",
        "property": "academicYear",
        "title":"StudyPrograms.Longis.AcademicYear"
      },
      {
        "name": "currentPeriod/locale/name",
        "property": "currentPeriod",
        "title": "StudyPrograms.Longis.AcademicPeriod"
        
      },
      {
        "name":"startDate",
        "property": "startDate",
        "title":"StudyPrograms.Longis.From",
        "formatter": "DateTimeFormatter",
        "formatString": "shortDate"
      },
      {
        "name":"endDate",
        "property": "endDate",
        "title":"StudyPrograms.Longis.To",
        "formatter": "DateTimeFormatter",
        "formatString": "shortDate"
      }
    ],
    "defaults":{
      "filter": "isActive eq '1'"
    },
    "criteria": [
      {
        "name": "name",
        "filter": "(indexof(name, '${value}') ge 0)",
        "type": "text"
      },
      {
        "name": "studylevel",
        "filter": "(studyLevel/alternateName eq '${value}')",
        "type": "text"
      },
      {
        "name": "active",
        "filter": "(isActive eq '${value}')",
        "type": "text"
      },
      {
        "name": "abbreviation",
        "filter": "(indexof(abbreviation, '${value}') ge 0)",
        "type": "text"
      }
    ],
    "paths" : [
        {
            "name": "StudyPrograms.All",
            "show": true,
            "alternateName": "list/index",
            "filter": { }
        },
        {
          "name": "StudyPrograms.Active.Plural",
          "alternateName": "list/active",
          "show": true,
          "filter": {
            "isActive": "1"
          }
        }
    ]
  }
  