{
    "components": [
      {
        "label": "Columns",
        "columns": [
          {
            "components": [
              {
                "label": "StudyPrograms.Name",
                "spellcheck": true,
                "tableView": true,
                "validate": {
                  "unique": false,
                  "multiple": false
                },
                "key": "name",
                "type": "textfield",
                "input": true,
                "hideOnChildrenHidden": false
              }
            ],
            "width": 6,
            "offset": 0,
            "push": 0,
            "pull": 0
          },
          {
            "components": [
              {
                "label": "StudyPrograms.Active.Singular",
                "widget": "choicesjs",
                "data": {
                    "values": [
                        {
                            "label": "No",
                            "value": "0"
                        },
                        {
                            "label": "Yes",
                            "value": "1"
                        }
                    ]
                },
                "selectThreshold": 0.3,
                "validate": {
                    "unique": false,
                    "multiple": false
                },
                "key": "active",
                "valueProperty": "value",
                "selectValues": "value",
                "type": "select",
                "input": true,
                "searchEnabled": false,
                "hideOnChildrenHidden": false,
                "disableLimit": false,
                "lazyLoad": false
              }
            ],
            "width": 2,
            "offset": 0,
            "push": 0,
            "pull": 0
          }
        ],
        "tableView": false,
        "type": "columns",
        "input": false,
        "path": "columns"
      }
    ]
  }
  