{
    "components": [
      {
        "label": "Columns",
        "columns": [
          {
            "components": [
              {
                "label": "StudyPrograms.Name",
                "spellcheck": true,
                "tableView": true,
                "validate": {
                  "unique": false,
                  "multiple": false
                },
                "key": "name",
                "type": "textfield",
                "input": true,
                "hideOnChildrenHidden": false
              }
            ],
            "width": 6,
            "offset": 0,
            "push": 0,
            "pull": 0
          }
        ],
        "tableView": false,
        "type": "columns",
        "input": false,
        "path": "columns"
      }
    ]
  }
  