{
    "title": "Exam Students",
    "searchExpression": "indexof(student/studentIdentifier, '${text}')  ge 0 or indexof(student/person/familyName, '${text}') ge 0 or indexof(student/studyProgram/abbreviation, '${text}') ge 0 )",
    "columns": [
      {
        "name": "student/id",
        "property": "id",
        "formatter": "ActionLinkFormatter",
        "actions": [
          {
            "title": "Exams.Preview",
            "href": "#/students/${id}/dashboard/overview"
          }
        ]
      },
      {
        "name": "student/studentIdentifier",
        "property": "studentIdentifier",
        "title": "Students.studentIdentifier"
      },
      {
        "name": "student/person/familyName",
        "property": "familyName",
        "title": "Students.fullName",
        "formatter": "TemplateFormatter",
        "formatString": "${familyName} ${givenName}"
      },
      {
        "name": "student/person/givenName",
        "property": "givenName",
        "title": "Students.GivenName",
        "hidden": true
      },
      {
        "name": "student/studyProgram/abbreviation",
        "property": "studyProgram",
        "title": "Students.studyProgram"
      },
      {
        "name": "student/inscriptionYear/alternateName",
        "property": "inscriptionYear",
        "title": "Students.inscriptionYear"
      },
      {
        "name": "student/inscriptionPeriod/locale/name",
        "property": "inscriptionPeriod",
        "title": "Students.inscriptionPeriod"
      },
      {
        "name": "student/studentStatus/alternateName",
        "property": "studentStatus",
        "title": "Students.Status",
        "formatter": "TranslationFormatter",
        "formatString": "StudentStatuses.${value}"
      },
      {
        "name": "isPassed",
        "property": "isPassed",
        "hidden": true
      },
      {
        "name": "formattedGrade",
        "property": "formattedGrade",
        "title": "Exams.Grade",
        "formatter": "NgClassFormatter",
        "formatOptions": {
          "ngClass": {
            "text-success": "${isPassed}===1  && ${formattedGrade != null}",
            "text-danger": "${isPassed}===0 && ${formattedGrade != null}"
          }
        }
      },
      {
        "name": "status/alternateName",
        "property": "gradeStatus",
        "title": "Exams.GradeStatusTitle",
        "formatters": [
          {
            "formatter": "TranslationFormatter",
            "formatString": "Exams.GradeStatus.${value}"
          },
          {
            "formatter": "NgClassFormatter",
            "formatOptions": {
              "ngClass": {
                "text-danger": "'${gradeStatus}'==='failed' || '${gradeStatus}'==='remark'",
                "text-primary": "'${gradeStatus}'==='pending'",
                "text-success": "'${gradeStatus}'==='normal'"
              }
            }
          }
        ]
      }
    ],
    "defaults":{
      "orderBy": "student/person/familyName asc"
    },
    "criteria": [
      {
        "name": "studyProgram",
        "filter": "(indexof(student/studyProgram/name, '${value}') ge 0 )",
        "type": "text"
      },
      {
        "name": "familyName",
        "filter": "(indexof(student/person/familyName, '${value}') ge 0)",
        "type": "text"
      },
      {
        "name": "studentStatus",
        "filter": "(student/studentStatus/alternateName eq '${value}')",
        "type": "text"
      },
      {
        "name": "inscriptionYear",
        "filter": "(student/inscriptionYear/name eq '${value}')",
        "type": "text"
      },
      {
        "name": "inscriptionPeriod",
        "filter": "(student/inscriptionPeriod/alternateName eq '${value}')",
        "type": "text"
      },
      {
        "name": "gradeStatus",
        "filter": "(status/name eq '${value}')",
        "type": "text"
      }
    ]
  }

