{
  "title": "Exam Document actions",
  "model": "ExamDocumentUploadActions",
  "columns": [
    {
      "name": "owner/alternateName",
      "property": "alternateName",
      "title": "Exams.Username"
    },
    {
      "name": "dateCreated",
      "property": "dateCreated",
      "title": "Exams.Submitted",
      "formatter": "DateTimeFormatter",
      "formatString": "shortDate"
    },
    {
      "name": "code",
      "title": "Exams.UploadNumber"
    },

    {
      "name": "actionStatus/alternateName",
      "property": "actionStatus",
      "title": "Exams.Status",
      "formatters": [
        {
          "formatter": "TranslationFormatter",
          "formatString": "ActionStatusTypes.${value}"
        },
        {
          "formatter": "NgClassFormatter",
          "formatOptions": {
            "ngClass": {
              "text-danger": "'${actionStatus}'==='CancelledActionStatus' || '${actionStatus}'==='FailedActionStatus'",
              "text-primary": "'${actionStatus}'==='ActiveActionStatus' || '${actionStatus}'==='PotentialActionStatus'",
              "text-success": "'${actionStatus}'==='CompletedActionStatus'"
            }
          }
        }
      ]
    },
    {
      "name": "object",
      "property": "courseExam",
      "hidden": true

    },
    {
      "name": "id",
      "formatter": "ButtonFormatter",
      "className": "text-center",
      "formatOptions": {
        "buttonContent": "<i class=\"far fa-eye text-indigo\"></i>",
        "buttonClass": "btn btn-default",
        "commands": [
          "../",
          "grading",
          "${id}"
        ]
      }
    }
  ]
}
