{
  "title": "BuyActions.All",
  "model": "BuyActions",
  "searchExpression":"indexof(name, '${text}') ge 0 or indexof(studyLevel/name, '${text}') ge 0",
"columns": [
    {
      "name":"id",
      "property": "id",
      "formatter": "ActionLinkFormatter",
      "actions" : [
        {
          "title": "Fees.Preview",
          "href": "#/fees/${id}/"
        },
        {
          "title": "Fees.Edit",
          "href": "#/fees/${id}/edit"
        }
      ]
    },
    {
      "name":"studyProgram/isActive",
      "property": "isActive",
      "title":"StudyPrograms.Active.Singular",
      "formatter": "TrueFalseFormatter"
    },
    {
      "name":"studyProgram/name",
      "property": "name",
      "title":"StudyPrograms.Name"
    },
    {
      "name":"studyProgram/studyLevel/alternateName",
      "property": "studyLevel",
      "title":"StudyPrograms.StudyLevel",
      "formatter": "TranslationFormatter",
      "formatString": "StudyLevels.${value}"
    },
    {
      "name":"studyProgram/abbreviation",
      "property": "abbreviation",
      "title":"StudyPrograms.Abbreviation"
    },
    {
      "name":"validFrom",
      "property": "validFrom",
      "title":"StudyPrograms.Abbreviation",
      "formatter": "DateTimeFormatter",
      "formatString": "shortDate"
    },
    {
      "name":"validThrough",
      "property": "validThrough",
      "title":"StudyPrograms.Abbreviation",
      "formatter": "DateTimeFormatter",
      "formatString": "shortDate"
    },
    {
      "name":"price",
      "property": "price",
      "title":"StudyPrograms.Abbreviation"
    },
    {
      "name":"priceCurrency",
      "property": "priceCurrency",
      "title":"StudyPrograms.Abbreviation"
    },
    {
      "name":"valueAddedTaxIncluded",
      "property": "valueAddedTaxIncluded",
      "title":"StudyPrograms.Abbreviation",
      "formatters": [
        {
          "formatter": "TrueFalseFormatter"
        },
        {
          "formatter": "NgClassFormatter",
          "formatOptions": {
            "ngClass": {
              "text-success": "${valueAddedTaxIncluded}",
              "text-danger": "${!valueAddedTaxIncluded}"
            }
          }
        }
      ]
    }
  ],
  "defaults":{
    "filter": ""
  },
  "criteria": [

  ]
}
