{
  "model": "StudyPrograms",
  "settings": {
    "i18n": {
      "el": {
        "Name": "Ονομασία",
        "Set the name of this study program":"Ορίστε την ονομασία του προγράμματος σπουδών",
        "Set a short name": "Ορίστε μια συντομογραφία",
        "Set the degree description": "Ορίστε τον τίτλο διπλώματος που απονέμει",
        "Set study level of this study program": "Ορίστε το επίπεδο σπουδών του προγράμματος σπουδών",
        "Study title type":"Περιγραφή τίτλου σπουδών",
        "Degree description": "Τίτλος σπουδών",
        "Specialization title type":"Περιγραφή κατεύθυνσης",
        "Select the grade scale that will be applied in this study program. This will affect grade submission and student grades.": "Επιλέξτε την κλίμακα βαθμολογίας που θα εφαρμοστεί σε αυτό το πρόγραμμα σπουδών. Αυτό θα επηρεάσει τις υποβολές βαθμολογίας και τους βαθμούς των σπουδαστών.",
        "Update courses' attributes based on this study program": "Ενημέρωση ιδιοτήτων διδακτικών ενοτήτων από το πρόγραμμα σπουδών",
        "Duration": "Διάρκεια (σε ώρες διδασκαλίας)",
        "Start Date":"Ημερομηνία έναρξης",
        "End Date":"Ημερομηνία λήξης",
        "Academic cycle": "Ακαδημαϊκός κύκλος",
        "Set the total number of ECTS gained by this programme of study": "Ορίστε το συνολικό αριθμό ECTS που αποκτήθηκε από αυτό το πρόγραμμα σπουδών",
        "Subject area": "Θεματική περιοχή",
        "Teaching method": "Μέθοδος εκπαίδευσης", 
        "Has fees": "Δίδακτρα",
        "Attending study program listing fee": "Κόστος καταλόγου παρακολούθησης του προγράμματος",
        "Set the litsting fee for attending the program.": "Ορίστε τα δίδακτρα καταλόγου παρακολούθησης του προγράμματος.",
        "Discount categories": "Κατηγορίες έκπτωσης", 
        "Set the discount categories under which the program is offered.": "Ορίστε τις κατηγορίες εκπτώσεων για τις οποίες προσφέρεται το πρόγραμμα.",
        "Fee Currency": "Νομισματική μονάδα",
        "When the study program has tuition fees, the fee currency must be set.": "Όταν το πρόγραμμα σπουδών έχει δίδκτρα πρέπει να ορίσετε και το νόμισμα αυτών.",
        "Set the fee currency under which the program is offered.": "Ορίστε τη νομισματική μονάδα των διδάκτρων."

      }
    }
  },
  "components": [
    {
      "columns": [
        {
          "components": [
            {
              "label": "Name",
              "labelPosition": "top",
              "widget": {
                "type": "input"
              },
              "validate": {
                "required": true,
                "maxLength": 150
              },
              "key": "name",
              "type": "textfield",
              "input": true,
              "description": "Set the name of this study program"
            }
          ],
          "width": 6
        }
      ],
      "customClass": "text-dark",
      "hideLabel": true,
      "type": "columns",
      "input": false
    },
    {
      "columns": [
        {
          "components": [
            {
              "label": "Degree description",
              "labelPosition": "top",
              "validate": {
                "required": true,
                "maxLength": 150
              },
              "key": "info.degreeDescription",
              "type": "textfield",
              "input": true,
              "description": "Set the degree description"
            }
          ],
          "width": 6
        }
      ],
      "customClass": "text-dark",
      "type": "columns",
      "input": false
    },
    {
      "columns": [
        {
          "components": [
            {
              "label": "Abbreviation",
              "labelPosition": "top",
              "validate": {
                "required": true,
                "maxLength": 20
              },
              "key": "abbreviation",
              "type": "textfield",
              "input": true,
              "description": "Set a short name"
            }
          ],
          "width": 3
        },
        {
          "components": [
            {
              "label": "Duration",
              "labelPosition": "top",
              "validate": {
                "required": true
              },
              "key": "duration",
              "type": "number",
              "input": true
            }
          ],
          "width": 3
        },
        {
          "components": [
            {
              "label": "ECTS",
              "description": "Set the total number of ECTS gained by this programme of study",
              "labelPosition": "top",
              "validate": {
                "required": true
              },
              "key": "totalECTS",
              "type": "number",
              "input": true
            }
          ],
          "width": 3
        },
        {
          "components": [
            {
              "label": "Active study program",
              "labelPosition": "top",
              "searchEnabled": false,
              "widget": "choicesjs",
              "data": {
                "values": [
                  {
                    "label": "No",
                    "value": "0"
                  },
                  {
                    "label": "Yes",
                    "value": "1"
                  }
                ]
              },
              "defaultValue": "1",
              "calculateValue": "value = value ? 1 : 0",
              "key": "isActive",
              "type": "select",
              "input": true
            }
          ],
          "width": 3
        },
        {
          "components": [
            {
              "label": "Academic Year",
              "labelPosition": "top",
              "widget": "choicesjs",
              "dataSrc": "url",
              "searchFields": [
                "value.id",
                "value.alternateName"
              ],
              "data": {
                "url": "AcademicYears?$top={{limit}}&$skip={{skip}}&$orderby=name desc",
                "headers": []
              },
              "validate": {
                "required": true
              },
              "dataType": "object",
              "idProperty": "id",
              "limit": 15,
              "template": "<span>{{ item.name }}</span>",
              "selectValues": "value",
              "key": "currentYear",
              "searchEnabled": true,
              "selectThreshold": 0.3,
              "type": "select",
              "input": true,
              "lazyLoad": true
            }
          ],
          "width": 3
        },
        {
          "components": [
            {
              "label": "Academic cycle",
              "labelPosition": "top",
              "widget": "choicesjs",
              "dataSrc": "url",
              "searchFields": [
                "value.id",
                "value.alternateName"
              ],
              "data": {
                "url": "AcademicPeriods?$top={{limit}}&$skip={{skip}}&$orderby=alternateName asc",
                "headers": []
              },
              "validate": {
                "required": true
              },
              "dataType": "object",
              "idProperty": "id",
              "limit": 15,
              "template": "<span>{{ item.name }}</span>",
              "selectValues": "value",
              "key": "currentPeriod",
              "searchEnabled": true,
              "selectThreshold": 0.3,
              "type": "select",
              "input": true,
              "lazyLoad": true
            }
          ],
          "width": 3
        },
        {
          "components": [
            {
              "label": "Start Date",
              "tableView": false,
              "datePicker": {
                "disableWeekends": false,
                "disableWeekdays": false
              },
              "customOptions": {
                "locale": "gr"
              },
              "enableMinDateInput": false,
              "enableMaxDateInput": false,
              "key": "startDate",
              "type": "datetime",
              "input": true,
              "enableTime": false,
              "widget": {
                "type": "calendar",
                "displayInTimezone": "viewer",
                "locale": "gr",
                "useLocaleSettings": false,
                "allowInput": true,
                "mode": "single",
                "enableTime": false,
                "noCalendar": false,
                "format": "yyyy-MM-dd",
                "hourIncrement": 1,
                "minuteIncrement": 1,
                "time_24hr": false,
                "minDate": null,
                "disableWeekends": false,
                "disableWeekdays": false,
                "maxDate": null
              }
            }
          ],
          "width": 3
        },
        {
          "components": [
            {
              "label": "End Date",
              "tableView": false,
              "datePicker": {
                "disableWeekends": false,
                "disableWeekdays": false
              },
              "customOptions": {
                "locale": "gr"
              },
              "enableMinDateInput": false,
              "enableMaxDateInput": false,
              "key": "endDate",
              "type": "datetime",
              "input": true,
              "enableTime": false,
              "widget": {
                "type": "calendar",
                "displayInTimezone": "viewer",
                "locale": "gr",
                "useLocaleSettings": false,
                "allowInput": true,
                "mode": "single",
                "enableTime": false,
                "noCalendar": false,
                "format": "yyyy-MM-dd",
                "hourIncrement": 1,
                "minuteIncrement": 1,
                "time_24hr": false,
                "minDate": null,
                "disableWeekends": false,
                "disableWeekdays": false,
                "maxDate": null
              }
            }
          ],
          "width": 3
        }
      ],
      "customClass": "text-dark",
      "type": "columns",
      "input": false
    },
    {
      "columns": [
        {
          "components": [
            {
              "label": "Has fees",
              "labelPosition": "top",
              "searchEnabled": false,
              "widget": "choicesjs",
              "data": {
                "values": [
                  {
                    "label": "No",
                    "value": "0"
                  },
                  {
                    "label": "Yes",
                    "value": "1"
                  }
                ]
              },
              "validate": {
                "required": true
              },
              "defaultValue": "1",
              "calculateValue": "value = value ? 1 : 0",
              "key": "hasFees",
              "type": "select",
              "input": true
            }
          ],
          "width": 3
        }, 
        {
          "components": [
            {
              "label": "Attending study program listing fee",
              "labelPosition": "top",
              "widget": {
                "type": "input"
              },
              "validate": {
                "pattern": "^[1-9]\\d*$",
                "customMessage": "When the study program has tuition fees, the cost cannot be zero.",
                "required": true
              },
              "key": "fees",
              "type": "number",
              "input": true,
              "protected": true,
              "description": "Set the litsting fee for attending the program.",
              "customConditional": "show = !!(data.hasFees && data.hasFees === 1);", 
              "calculateValue": "value = data.fees === 0 ? null : data.fees"
            }
          ],
          "width": 3
        }, 
        {
          "components": [
            {
              "label": "Fee Currency",
              "widget": "choicesjs",
              "tableView": true,
              "template": "{{ item.alternateName }}",
              "idPath": "id",
              "dataSrc": "url",
              "data": {
                "url": "/PriceCurrencies?",
                "headers": []
              },
              "validate": {
                "customMessage": "When the study program has tuition fees, the fee currency must be set.",
                "required": true
              },
              "dataType": "object",
              "idProperty": "id",
              "selectThreshold": 0.3,
              "selectValues": "value",
              "key": "feeCurrency",
              "type": "select",
              "input": true, 
              "description": "Set the fee currency under which the program is offered.",
              "customConditional": "show = !!(data.hasFees && data.hasFees === 1);"
            }
          ],
          "width": 2
        },
        {
          "components": [
            {
              "label": "Discount categories",
              "widget": "choicesjs",
              "tableView": true,
              "multiple": true,
              "template": "{{ item.locale.name  }} - {{(item.discount + '%')}}",
              "dataType": "object",
              "idPath": "id",
              "dataSrc": "url",
              "data": {
                "url": "/DiscountCategories?$expand=label,locale&$top=-1",
                "headers": []
              },
              "selectThreshold": 0.3,
              "selectValues": "value",
              "key": "discountCategories",
              "type": "select",
              "input": true, 
              "description": "Set the discount categories under which the program is offered.",
              "customConditional": "show = !!(data.hasFees && data.hasFees === 1);"
            }
          ],
          "width": 4
        }
      ],
      "customClass": "text-dark",
      "type": "columns",
      "input": false
    },
    {
      "columns": [
        {
          "components": [
            {
              "label": "Study Level",
              "labelPosition": "top",
              "widget": "choicesjs",
              "dataSrc": "url",
              "data": {
                "url": "StudyLevels/?$select=id,name,alternateName",
                "headers": []
              },
              "template": "<span class='d-block pr-5 text-truncate'>{{ item.name }}</span>",
              "searchFields": [
                "id",
                "name",
                "alternateName"
              ],
              "selectValues": "value",
              "validate": {
                "required": true
              },
              "key": "studyLevel.id",
              "valueProperty": "id",
              "lazyLoad": false,
              "type": "select",
              "input": true,
              "description": "Set study level of this study program"
            }
          ],
          "width": 4
        },
        {
          "components": [
            {
              "label": "Teaching method",
              "labelPosition": "top",
              "widget": "choicesjs",
              "dataSrc": "url",
              "data": {
                "url": "TeachingMethodTypes/?$select=id,name,alternateName",
                "headers": []
              },
              "template": "<span class='d-block pr-5 text-truncate'>{{ item.name }}</span>",
              "selectValues": "value",
              "validate": {
                "required": false
              },
              "key": "teachingMethod",
              "valueProperty": "id",
              "lazyLoad": false,
              "type": "select",
              "input": true,
              "disabled": false
            }
          ],
          "width": 3
        },
        {
          "components": [
            {
              "label": "Grade Scale",
              "labelPosition": "top",
              "widget": "choicesjs",
              "dataSrc": "url",
              "data": {
                "url": "GradeScales/?$select=id,name",
                "headers": []
              },
              "template": "<span class='d-block pr-5 text-truncate'>{{ item.name }}</span>",
              "searchFields": [
                "id",
                "name"
              ],
              "selectValues": "value",
              "validate": {
                "required": true
              },
              "key": "gradeScale",
              "lazyLoad": false,
              "type": "select",
              "input": true,
              "description": "Select the grade scale that will be applied in this study program. This will affect grade submission and student grades."
            }
          ],
          "width": 4
        },
        {
          "components": [
            {
              "label": "Study title type",
              "labelPosition": "top",
              "widget": "choicesjs",
              "dataSrc": "url",
              "data": {
                "url": "studyTitleTypes/?$select=id,name",
                "headers": []
              },
              "template": "<span class='d-block pr-5 text-truncate'>{{ item.name }}</span>",
              "searchFields": [
                "id",
                "name"
              ],
              "selectValues": "value",
              "validate": {
                "required": true
              },
              "key": "info.studyTitleType",
              "lazyLoad": false,
              "type": "select",
              "input": true
            }
          ],
          "width": 4
        },
        {
          "components": [
            {
              "label": "Subject area",
              "labelPosition": "top",
              "widget": "choicesjs",
              "dataSrc": "url",
              "data": {
                "url": "SubjectAreas/?$select=id,name",
                "headers": []
              },
              "template": "{{ item.name }}",
              "searchFields": [
                "id",
                "name"
              ],
              "selectValues": "value",
              "valueProperty": "id",
              "validate": {
                "required": true
              },
              "key": "subjectArea",
              "lazyLoad": false,
              "type": "select",
              "input": true
            }
          ],
          "width": 4
        },
        {
          "components": [
            {
              "label": "MaxNumberOfRemarking",
              "labelPosition": "top",
              "widget": {
                "type": "input"
              },
              "dataType": "string",
              "key": "maxNumberOfRemarking",
              "type": "textfield",
              "input": true,
              "disabled": false,
              "tableView" : true,
              "hidden": true,
              "defaultValue" : 4
            }
          ],
          "width": 3
        }
      ],
      "customClass": "text-dark",
      "type": "columns",
      "input": false
    },
    {
      "label": "Update courses' attributes based on this study program",
      "tableView": true,
      "key": "useCurrentCourseAttributes",
      "type": "checkbox",
      "input": true,
      "defaultValue": false,
      "customClass": "my-2 py-2"
    },
    {
      "type": "button",
      "label": "Submit",
      "key": "submit",
      "disableOnInvalid": true,
      "input": true
    }
  ]
}
