{
  "settings": {
    "i18n": {
      "el": {
        "Phone number must contain only digits (minimum 10 digits)": "Ο αριθμός τηλεφώνου πρέπει να περιέχει μόνο αριθμούς (τουλάχιστον 10 αριθμούς)",
        "Age group": "Ηλικιακή ομάδα",
        "Include country code e.g +3069xxxxxxxx": "Συμπεριλάβετε και τον κωδικό της χώρας π.χ. +3069xxxxxxxx",
        "Employment status": "Κατάσταση απασχόλησης",
        "Study level": "Βαθμίδα Εκπαίδευσης",
        "Job description": "Εργοδότης/Είδος Εργασίας/Περίοδος Εργασίας",
        "Occupation": "Ιδιότητα/επάγγελμα",
        "Example: Study Program name (year)": "Παράδειγμα: Όνομα προγράμματος επιμόρφωσης (έτος)",
        "Education - Occupation": "Στοιχεία εκπαίδευσης - απασχόλησης",
        "Privacy Policy Consent": "Συναίνεση Πολιτικής Απορρήτου",
        "I accept the access to my personal data in accordance with the terms of the Privacy Policy.": "Αποδέχομαι την πρόσβαση στα προσωπικά μου δεδομένα σύμφωνα με τους όρους της Πολιτικής Απορρήτου.",
        "If consent is not provided, the application cannot be submitted.": "Σε περίπτωση μη συναίνεσης  η αίτηση δεν μπορεί να υποβληθεί.",
        "Privacy Policy": "Πολιτική Απορρήτου",
        "Discount category": "Κατηγορία έκπτωσης",
        "Are you an active student of this university?": "Είστε ενεργή/ός φοιτήτρια/φοιτητής του οικείου ιδρύματος;",
        "Choose your current study level": "Επέλεξε βαθμίδα εκπαίδευσης που σπουδάζετε",
        "Are you a graduate of this university?": "Είστε απόφοιτη/απόφοιτος του οικείου ιδρύματος;",
        "Have you previously completed another study program at this university?": "Έχετε συμμετάσχει στο παρελθόν σε άλλο πρόγραμμα επιμόρφωσης του οικείου ιδρύματος;",
        "If yes, Which study program and when?": "Αν ναι, ποιο πρόγραμμα και σε ποιο έτος;",
        "Father's name": "Πατρώνυμο"
      }
    }
  },
  "components": [
    {
      "components": [
        {
          "legend": "Personal Information",
          "key": "fieldset",
          "type": "fieldset",
          "input": false,
          "components": [
            {
              "columns": [
                {
                  "components": [
                    {
                      "label": "Given Name",
                      "key": "candidate.person.givenName",
                      "labelPosition": "top",
                      "widget": {
                        "type": "input"
                      },
                      "validate": {
                        "required": true
                      },
                      "type": "textfield",
                      "input": true,
                      "disabled": true
                    }
                  ],
                  "width": 2,
                  "offset": 0,
                  "push": 0,
                  "pull": 0
                },
                {
                  "components": [
                    {
                      "label": "Family Name",
                      "labelPosition": "top",
                      "widget": "choicesjs",
                      "selectValues": "value",
                      "type": "textfield",
                      "key": "candidate.person.familyName",
                      "input": true,
                      "validate": {
                        "required": true
                      },
                      "disabled": true
                    }
                  ],
                  "width": 2,
                  "offset": 0,
                  "push": 0,
                  "pull": 0
                },
                {
                  "components": [
                    {
                      "label": "Father's name",
                      "labelPosition": "top",
                      "widget": "choicesjs",
                      "selectValues": "value",
                      "type": "textfield",
                      "key": "candidate.person.fatherName",
                      "input": true,
                      "disabled": true
                    }
                  ],
                  "width": 2,
                  "offset": 0,
                  "push": 0,
                  "pull": 0
                },
                {
                  "components": [
                    {
                      "label": "Gender",
                      "labelPosition": "top",
                      "dataSrc": "url",
                      "data": {
                        "url": "Genders?$filter=identifier ne null&$expand=locale",
                        "headers": []
                      },
                      "template": "{{ item.locale.name || item.name }}",
                      "key": "candidate.person.gender",
                      "type": "select",
                      "input": true,
                      "selectValues": "value",
                      "valueProperty": "id",
                      "widget": "choicesjs",
                      "searchEnabled": false,
                      "validate": {
                        "required": true
                      },
                      "lazyLoad": true,
                      "disabled": true
                    }
                  ],
                  "width": 2,
                  "offset": 0,
                  "push": 0,
                  "pull": 0
                },
                {
                  "components": [
                    {
                      "label": "Age group",
                      "labelPosition": "top",
                      "dataSrc": "url",
                      "data": {
                        "url": "ageGroups?$top={{limit}}&$skip={{skip}}",
                        "headers": []
                      },
                      "limit": 200,
                      "template": "{{ item.name }}",
                      "key": "ageGroup",
                      "type": "select",
                      "input": true,
                      "selectValues": "value",
                      "dataType": "object",
                      "idPath": "id",
                      "widget": "choicesjs",
                      "searchEnabled": true,
                      "validate": {
                        "required": true
                      },
                      "lazyLoad": true,
                      "disabled": true
                    }
                  ],
                  "width": 2,
                  "offset": 0,
                  "push": 0,
                  "pull": 0
                }
              ],
              "customClass": "text-dark",
              "hideLabel": true,
              "type": "columns",
              "input": false
            }
          ]
        },
        {
          "legend": "Education - Occupation",
          "key": "fieldSet",
          "type": "fieldset",
          "input": false,
          "label": "Education - Occupation",
          "components": [
            {
              "columns": [
                {
                  "components": [
                    {
                      "label": "Study level",
                      "labelPosition": "top",
                      "dataSrc": "url",
                      "data": {
                        "url": "EducationLevels?$top={{limit}}&$skip={{skip}}&$expand=locale",
                        "headers": []
                      },
                      "limit": 200,
                      "template": "{{ item.locale.name || item.name }}",
                      "dataType": "object",
                      "idPath": "id",
                      "key": "educationLevel",
                      "type": "select",
                      "input": true,
                      "selectValues": "value",
                      "widget": "choicesjs",
                      "searchEnabled": true,
                      "validate": {
                        "required": true
                      },
                      "lazyLoad": true,
                      "disabled": true
                    }
                  ],
                  "width": 4,
                  "offset": 0,
                  "push": 0,
                  "pull": 0
                },
                {
                  "components": [
                    {
                      "label": "Employment status",
                      "labelPosition": "top",
                      "dataSrc": "url",
                      "data": {
                        "url": "employmentStatuses?$top={{limit}}&$skip={{skip}}&$expand=locale",
                        "headers": []
                      },
                      "limit": 200,
                      "template": "{{ item.locale.name || item.name }}",
                      "dataType": "object",
                      "idPath": "id",
                      "key": "employmentStatus",
                      "type": "select",
                      "input": true,
                      "selectValues": "value",
                      "widget": "choicesjs",
                      "searchEnabled": true,
                      "validate": {
                        "required": true
                      },
                      "lazyLoad": true,
                      "disabled": true
                    }
                  ],
                  "width": 2,
                  "offset": 0,
                  "push": 0,
                  "pull": 0
                },
                {
                  "components": [
                    {
                      "label": "Occupation",
                      "key": "profession",
                      "labelPosition": "top",
                      "widget": {
                        "type": "input"
                      },
                      "validate": {
                        "required": true
                      },
                      "type": "textfield",
                      "input": true,
                      "disabled": true
                    }
                  ],
                  "width": 3,
                  "offset": 0,
                  "push": 0,
                  "pull": 0
                },
                {
                  "components": [
                    {
                      "label": "Job description",
                      "labelPosition": "top",
                      "widget": {
                        "type": "input"
                      },
                      "validate": {
                        "required": false
                      },
                      "key": "jobDescription",
                      "type": "textfield",
                      "input": true,
                      "disabled": true
                    }
                  ],
                  "width": 3,
                  "offset": 0,
                  "push": 0,
                  "pull": 0
                },
                {
                  "components": [
                    {
                      "label": "Have you previously completed another study program at this university?",
                      "tableView": false,
                      "key": "pastAttendee",
                      "type": "checkbox",
                      "customClass": "add-spacing",
                      "input": true,
                      "disabled": true
                    },
                    {
                      "label": "If yes, Which study program and when?",
                      "customConditional": "show = data.pastAttendee",
                      "key": "pastAttendeePrograms",
                      "labelPosition": "top",
                      "widget": {
                        "type": "input"
                      },
                      "validate": {
                        "required": true
                      },
                      "type": "textarea",
                      "description": "Example: Study Program name (year)",
                      "input": true,
                      "disabled": true
                    }
                  ],
                  "width": 4,
                  "offset": 0,
                  "push": 0,
                  "pull": 0
                },
                {
                  "components": [
                    {
                      "label": "Are you an active student of this university?",
                      "tableView": false,
                      "key": "isActiveStudent",
                      "type": "checkbox",
                      "customClass": "add-spacing",
                      "input": true,
                      "disabled": true
                    },
                    {
                      "label": "Choose your current study level",
                      "customConditional": "show = data.isActiveStudent",
                      "labelPosition": "top",
                      "dataSrc": "url",
                      "data": {
                        "url": "StudyLevels?$top={{limit}}&$skip={{skip}}&$expand=locale",
                        "headers": []
                      },
                      "limit": 200,
                      "template": "{{ item.locale.name || item.name }}",
                      "dataType": "object",
                      "idPath": "id",
                      "key": "activeStudyLevel",
                      "type": "select",
                      "input": true,
                      "selectValues": "value",
                      "widget": "choicesjs",
                      "searchEnabled": true,
                      "validate": {
                        "required": true
                      },
                      "lazyLoad": true,
                      "disabled": true
                    }
                  ],
                  "width": 4,
                  "offset": 0,
                  "push": 0,
                  "pull": 0
                },
                {
                  "components": [
                    {
                      "label": "Are you a graduate of this university?",
                      "tableView": false,
                      "key": "isAlumni",
                      "customClass": "add-spacing",
                      "type": "checkbox",
                      "input": true,
                      "disabled": true
                    }
                  ],
                  "width": 4,
                  "offset": 0,
                  "push": 0,
                  "pull": 0
                }
              ],
              "customClass": "formio-component-select-wrap text-dark",
              "hideLabel": true,
              "type": "columns",
              "input": false
            }
          ]
        },
        {
          "legend": "Discount policy",
          "key": "fieldSet",
          "type": "fieldset",
          "input": false,
          "label": "Discount policy",
          "customConditional": "show = !!(data.studyProgram && data.studyProgram.id && data.studyProgram.fees > 0)",
          "components": [
            {
              "columns": [
                {
                  "components": [
                    {
                      "label": "Discount category",
                      "labelPosition": "top",
                      "dataSrc": "url",
                      "data": {
                        "url": "StudyPrograms/{{data.studyProgram.id}}/discountCategories?$expand=locale,label",
                        "headers": []
                      },
                      "limit": 200,
                      "template": "{{ item.locale.name || item.name }} - ({{ item.label.name }})",
                      "dataType": "object",
                      "idPath": "id",
                      "key": "discount",
                      "type": "select",
                      "input": true,
                      "selectValues": "value",
                      "widget": "choicesjs",
                      "searchEnabled": true,
                      "validate": {
                        "required": true
                      },
                      "disabled": true,
                      "lazyLoad": true,
                      "customConditional": "show = !!(data.studyProgram && data.studyProgram.id && data.studyProgram.fees > 0)"
                    }
                  ],
                  "width": 6,
                  "offset": 0,
                  "push": 0,
                  "pull": 0
                },
                {
                  "components": [
                    {
                      "label": "HTML",
                      "tag": "div",
                      "className": "form-group",
                      "content": "<div class=\"font-md text-primary\">{{data.discount && ((data.discount.locale && data.discount.locale.descriptionLong) || data.discount.descriptionLong ) }}</div>",
                      "tableView": false,
                      "key": "subtitle",
                      "type": "htmlelement",
                      "input": false
                    }
                  ],
                  "width": 12,
                  "offset": 0,
                  "push": 0,
                  "pull": 0
                }
              ],
              "customClass": "text-dark",
              "hideLabel": true,
              "type": "columns",
              "input": false
            }
          ]
        },
        {
          "legend": "Contact Details",
          "key": "fieldSet",
          "type": "fieldset",
          "input": false,
          "label": "Contact Details",
          "components": [
            {
              "columns": [
                {
                  "components": [
                    {
                      "label": "Address",
                      "labelPosition": "top",
                      "widget": {
                        "type": "input"
                      },
                      "validate": {
                        "required": false
                      },
                      "key": "candidate.person.homeAddress",
                      "type": "textfield",
                      "input": true,
                      "disabled": true
                    }
                  ],
                  "width": 3,
                  "offset": 0,
                  "push": 0,
                  "pull": 0
                },
                {
                  "components": [
                    {
                      "label": "Postal Code",
                      "labelPosition": "top",
                      "widget": {
                        "type": "input"
                      },
                      "validate": {
                        "required": false
                      },
                      "key": "candidate.person.homePostalCode",
                      "type": "textfield",
                      "input": true,
                      "disabled": true
                    }
                  ],
                  "width": 3,
                  "offset": 0,
                  "push": 0,
                  "pull": 0
                },
                {
                  "components": [
                    {
                      "label": "City",
                      "labelPosition": "top",
                      "widget": {
                        "type": "input"
                      },
                      "validate": {
                        "required": false
                      },
                      "key": "candidate.person.homeCity",
                      "type": "textfield",
                      "input": true,
                      "disabled": true
                    }
                  ],
                  "width": 3,
                  "offset": 0,
                  "push": 0,
                  "pull": 0
                },
                {
                  "components": [
                    {
                      "label": "Country",
                      "labelPosition": "top",
                      "dataSrc": "url",
                      "data": {
                        "url": "Countries?$top={{limit}}&$skip={{skip}}&$expand=locale",
                        "headers": []
                      },
                      "limit": 200,
                      "template": "{{ item.locale.name || item.name }}",
                      "selectValues": "value",
                      "widget": {
                        "type": "input"
                      },
                      "key": "candidate.person.homeCountry",
                      "valueProperty": "name",
                      "type": "select",
                      "input": true,
                      "lazyLoad": true,
                      "disabled": true
                    }
                  ],
                  "width": 3,
                  "offset": 0,
                  "push": 0,
                  "pull": 0
                },
                {
                  "components": [
                    {
                      "label": "Phone",
                      "labelPosition": "top",
                      "type": "textfield",
                      "spellcheck": true,
                      "widget": {
                        "type": "input"
                      },
                      "validate": {
                        "pattern": "^[0-9]*$",
                        "customMessage": "Phone number must contain only digits (minimum 10 digits)",
                        "minLength": 10,
                        "maxLength": 20
                      },
                      "key": "candidate.person.homePhone",
                      "input": true,
                      "disabled": true
                    }
                  ],
                  "width": 3,
                  "offset": 0,
                  "push": 0,
                  "pull": 0
                },
                {
                  "components": [
                    {
                      "label": "Mobile Phone",
                      "type": "textfield",
                      "labelPosition": "top",
                      "validate": {
                        "pattern": "^\\+[0-9]*$",
                        "customMessage": "Phone number must contain only digits (minimum 10 digits)",
                        "minLength": 10,
                        "maxLength": 20,
                        "required": true
                      },
                      "input": true,
                      "key": "candidate.person.mobilePhone",
                      "widget": "choicesjs",
                      "disabled": true
                    }
                  ],
                  "width": 3,
                  "offset": 0,
                  "push": 0,
                  "pull": 0
                },
                {
                  "components": [
                    {
                      "label": "Email",
                      "labelPosition": "top",
                      "type": "email",
                      "input": true,
                      "selectValues": "value",
                      "key": "candidate.person.email",
                      "widget": "choicesjs",
                      "validate": {
                        "required": true
                      },
                      "disabled": true
                    }
                  ],
                  "width": 3,
                  "offset": 0,
                  "push": 0,
                  "pull": 0
                }
              ],
              "customClass": "formio-component-select-wrap text-dark",
              "hideLabel": true,
              "type": "columns",
              "input": false
            }
          ]
        }
      ]
    }
  ]
}