{
	"model": "TimetableEvents",
	"settings": {
		"i18n": {
			"el": {
				"New Start Date": "Νέα ημερομηνία έναρξης",
				"End Date": "Έως",
				"New Title": "Νέος Τίτλος",
				"New Description": "Νέα Περιγραφή",
				"New Timetable Details": "Στοιχεία νέου ημερολογίου",
				"Start time cannot succeed end time.": "Η ώρα έναρξης δεν μπορεί να έπεται της ώρας λήξης.",
				"End time cannot precede start time.": "Η ώρα λήξης δεν μπορεί να προηγείται της ώρας έναρξης.",
				"Start date cannot succeed end date.": "Η ημερομηνία έναρξης δεν μπορεί να έπεται της ημερομηνία λήξης.",
				"End date cannot precede start date.": "Η ημερομηνία λήξης δεν μπορεί να προηγείται της ημερομηνία έναρξης.",
				"Available Places": "Επιτρεπόμενες Τοποθεσίες",
				"Available Event Types": "Επιτρεπόμενοι Τύποι Γεγονότων",
				"Academic Cycles": "Ακαδημαϊκοί Κύκλοι",
				"Exam Periods": "Εξεταστικές Περίοδοι",
				"Create events on except dates": "Δημιουργία γεγονότων σε αργίες",
				"<p>* Copying a timetable will result in all its events being copied accordingly. New events will be created for the new timetable, each on the same week and day as in the original. In order for all the events to be copied, the respective classes for the new period must be created and assigned to instructors.</p>": "<p>* Κατά τη διαδικασία αντιγραφής του ημερολογίου, τα γεγονότα διδασκαλίας αντιγράφονται κατά αντιστοιχία με το αρχικό ημερολόγιο (στην αντίστοιχη εβδομάδα και ημέρα). Για να αντιγραφούν με επιτυχία όλα τα γεγονότα είναι απαραίτητο να έχει προηγηθεί η δημιουργία των σχετικών τάξεων και η ορθή ανάθεση τους στους αντίστοιχους διδάσκοντες.</p>"
			}
		}
	},
	"components": [
		{
			"type": "fieldset",
			"legend": "New Timetable Details",
			"components": [
				{
					"customClass": "text-dark",
					"hideLabel": true,
					"type": "columns",
					"input": false,
					"columns": [
						{
							"components": [
								{
									"label": "New Start Date",
									"tableView": false,
									"format": "dd-MM-yyyy",
									"enableTime": false,
									"validate": {
										"required": true,
										"custom": "valid = !data.endDate || (input && moment(input).isBefore(data.endDate));"
									},
									"errors": {
										"custom": "Start date cannot succeed end date."
									},
									"key": "startDate",
									"type": "datetime",
									"input": true,
									"widget": {
										"type": "calendar"
									}
								}
							],
							"width": 4
						},
						{
							"components": [
								{
									"label": "New Title",
									"widget": {
										"type": "input"
									},
									"validate": {
										"required": true
									},
									"key": "name",
									"type": "textfield",
									"input": true
								}
							],
							"width": 4
						},
						{
							"components": [
								{
									"label": "Academic Year",
									"widget": "choicesjs",
									"tableView": true,
									"template": "{{item.name}}",
									"dataType": "object",
									"idPath": "id",
									"dataSrc": "url",
									"data": {
										"url": "AcademicYears?$select=name,id&$orderby=name desc",
										"headers": []
									},
									"selectThreshold": 0.3,
									"validate": {
										"required": true
									},
									"key": "academicYear",
									"type": "select",
									"selectValues": "value",
									"input": true
								}
							],
							"width": 4
						}
					]
				}
			]
		},
		{
			"label": "New Description",
			"tableView": true,
			"validate": {
				"required": false,
				"maxLength": 512
			},
			"key": "description",
			"type": "textarea",
			"rows": 3,
			"input": true
		},
		{
			"label": "Create events on except dates",
			"key": "createExceptEvents",
			"type": "checkbox",
			"input": true,
			"defaultValue": true
		},
		{
			"html": "<p>* Copying a timetable will result in all its events being copied accordingly. New events will be created for the new timetable, each on the same week and day as in the original. In order for all the events to be copied, the respective classes for the new period must be created and assigned to instructors.</p>",
			"type": "content",
			"input": false,
			"customClass": "text-indigo"
		},
		{
			"type": "button",
			"label": "Submit",
			"key": "submit",
			"disableOnInvalid": true,
			"input": true,
			"hidden": false
		}
	]
}